%YAML 1.1
%TAG !u! tag:unity3d.com,2011:
--- !u!114 &11400000
MonoBehaviour:
  m_ObjectHideFlags: 0
  m_CorrespondingSourceObject: {fileID: 0}
  m_PrefabInstance: {fileID: 0}
  m_PrefabAsset: {fileID: 0}
  m_GameObject: {fileID: 0}
  m_Enabled: 1
  m_EditorHideFlags: 0
  m_Script: {fileID: 11500000, guid: bbb281ee3bf0b054c82ac2347e9e782c, type: 3}
  m_Name: Default Local Group
  m_EditorClassIdentifier: 
  m_GroupName: Default Local Group
  m_Data:
    m_SerializedData: []
  m_GUID: 23a10af3ee3f440f19660fd2270a258a
  m_SerializeEntries: []
  m_ReadOnly: 0
  m_Settings: {fileID: 11400000, guid: 8674f3746fb00401d895bd99a830555e, type: 2}
  m_SchemaSet:
    m_Schemas:
    - {fileID: 11400000, guid: bcdc9389c8004480e97e50a191c0722d, type: 2}
    - {fileID: 11400000, guid: 5bbacaa68ef544cfcaa3b5a55e766cf2, type: 2}
