%YAML 1.1
%TAG !u! tag:unity3d.com,2011:
--- !u!1045 &1
EditorBuildSettings:
  m_ObjectHideFlags: 0
  serializedVersion: 2
  m_Scenes:
  - enabled: 1
    path: Assets/My Assets/Scenes/RockPaperScissorGame.unity
    guid: 2cda990e2423bbf4892e6590ba056729
  m_configObjects:
    com.unity.addressableassets: {fileID: 11400000, guid: b4f9c0b2a9cde4f23be64b9e85c26d04, type: 2}
    com.unity.localization.settings: {fileID: 11400000, guid: 957cae81154a248eab384c3bef3bdb6b, type: 2}
